# MagicaVoxel @ Ephtracy

# group
o 

# material
mtllib CabezaSerpiente.mtl
usemtl palette

# normals
vn -1 0 0
vn 1 0 0
vn 0 0 1
vn 0 0 -1
vn 0 -1 0
vn 0 1 0

# texcoords
vt 0.970703 0.5
vt 0.974609 0.5
vt 0.978516 0.5
vt 0.982422 0.5
vt 0.986328 0.5
vt 0.990234 0.5

# verts
v -0.9 0.6 0.3
v -0.9 0.6 0.1
v -0.9 0.6 -0.1
v -0.9 0.6 -0.3
v -0.9 0.8 0.5
v -0.9 0.8 0.3
v -0.9 0.8 0.1
v -0.9 0.8 -0.1
v -0.9 0.8 -0.3
v -0.9 0.8 -0.5
v -0.9 1 0.5
v -0.9 1 -0.5
v -0.9 1.2 0.5
v -0.9 1.2 -0.5
v -0.8 0 0.5
v -0.8 0 -0.5
v -0.8 0.2 0.5
v -0.8 0.2 -0.5
v -0.8 0.4 0.5
v -0.8 0.4 -0.5
v -0.4 0.4 0.5
v -0.4 0.4 0.3
v -0.4 0.4 -0.3
v -0.4 0.4 -0.5
v -0.4 0.8 0.5
v -0.4 0.8 0.3
v -0.4 0.8 -0.3
v -0.4 0.8 -0.5
v 0 0.4 0.7
v 0 0.4 0.5
v 0 0.4 -0.5
v 0 0.4 -0.7
v 0 1.1 0.7
v 0 1.1 0.5
v 0 1.1 -0.5
v 0 1.1 -0.7
v -0.7 0.6 0.3
v -0.7 0.6 0.1
v -0.7 0.6 -0.1
v -0.7 0.6 -0.3
v -0.7 0.8 0.3
v -0.7 0.8 0.1
v -0.7 0.8 -0.1
v -0.7 0.8 -0.3
v 0.7 0.4 0.7
v 0.7 0.4 0.5
v 0.7 0.4 -0.5
v 0.7 0.4 -0.7
v 0.7 1.1 0.7
v 0.7 1.1 0.5
v 0.7 1.1 -0.5
v 0.7 1.1 -0.7
v 0.9 0 0.5
v 0.9 0 -0.5
v 0.9 0.7 0.3
v 0.9 0.7 0.1
v 0.9 0.7 -0.1
v 0.9 0.7 -0.3
v 0.9 1.2 0.5
v 0.9 1.2 0.3
v 0.9 1.2 0.1
v 0.9 1.2 -0.1
v 0.9 1.2 -0.3
v 0.9 1.2 -0.5
v 0 0.4 0.7
v 0 1.1 0.7
v 0.2 0.6 0.7
v 0.2 0.9 0.7
v 0.5 0.6 0.7
v 0.5 0.9 0.7
v 0.7 0.4 0.7
v 0.7 1.1 0.7
v -0.9 0.8 0.5
v -0.9 1 0.5
v -0.9 1.2 0.5
v -0.8 0 0.5
v -0.8 0.2 0.5
v -0.8 0.4 0.5
v -0.4 0.4 0.5
v -0.4 0.8 0.5
v -0.2 0.2 0.5
v -0.2 1 0.5
v 0 0.4 0.5
v 0 1.1 0.5
v 0.7 0.4 0.5
v 0.7 1.1 0.5
v 0.9 0 0.5
v 0.9 1.2 0.5
v -0.9 0.6 0.3
v -0.9 0.8 0.3
v -0.7 0.6 0.3
v -0.7 0.8 0.3
v -0.9 0.6 -0.1
v -0.9 0.8 -0.1
v -0.7 0.6 -0.1
v -0.7 0.8 -0.1
v -0.9 0.6 0.1
v -0.9 0.8 0.1
v -0.7 0.6 0.1
v -0.7 0.8 0.1
v -0.9 0.6 -0.3
v -0.9 0.8 -0.3
v -0.7 0.6 -0.3
v -0.7 0.8 -0.3
v -0.9 0.8 -0.5
v -0.9 1 -0.5
v -0.9 1.2 -0.5
v -0.8 0 -0.5
v -0.8 0.2 -0.5
v -0.8 0.4 -0.5
v -0.4 0.4 -0.5
v -0.4 0.8 -0.5
v -0.2 0.2 -0.5
v -0.2 1 -0.5
v 0 0.4 -0.5
v 0 1.1 -0.5
v 0.7 0.4 -0.5
v 0.7 1.1 -0.5
v 0.9 0 -0.5
v 0.9 1.2 -0.5
v 0 0.4 -0.7
v 0 1.1 -0.7
v 0.2 0.6 -0.7
v 0.2 0.9 -0.7
v 0.5 0.6 -0.7
v 0.5 0.9 -0.7
v 0.7 0.4 -0.7
v 0.7 1.1 -0.7
v -0.8 0 0.5
v 0.9 0 0.5
v -0.8 0 -0.5
v 0.9 0 -0.5
v 0 0.4 0.7
v 0.7 0.4 0.7
v 0 0.4 0.5
v 0.7 0.4 0.5
v 0 0.4 -0.5
v 0.7 0.4 -0.5
v 0 0.4 -0.7
v 0.7 0.4 -0.7
v -0.9 0.6 0.3
v -0.7 0.6 0.3
v -0.9 0.6 0.1
v -0.7 0.6 0.1
v -0.9 0.6 -0.1
v -0.7 0.6 -0.1
v -0.9 0.6 -0.3
v -0.7 0.6 -0.3
v -0.9 0.8 0.5
v -0.4 0.8 0.5
v -0.9 0.8 0.3
v -0.7 0.8 0.3
v -0.4 0.8 0.3
v -0.9 0.8 0.1
v -0.7 0.8 0.1
v -0.9 0.8 -0.1
v -0.7 0.8 -0.1
v -0.9 0.8 -0.3
v -0.7 0.8 -0.3
v -0.4 0.8 -0.3
v -0.9 0.8 -0.5
v -0.4 0.8 -0.5
v -0.8 0.4 0.5
v -0.4 0.4 0.5
v -0.6 0.4 0.3
v -0.4 0.4 0.3
v -0.6 0.4 -0.3
v -0.4 0.4 -0.3
v -0.8 0.4 -0.5
v -0.4 0.4 -0.5
v 0 1.1 0.7
v 0.7 1.1 0.7
v 0 1.1 0.5
v 0.7 1.1 0.5
v 0 1.1 -0.5
v 0.7 1.1 -0.5
v 0 1.1 -0.7
v 0.7 1.1 -0.7
v -0.9 1.2 0.5
v 0.9 1.2 0.5
v 0.2 1.2 0.3
v 0.9 1.2 0.3
v 0.2 1.2 0.1
v 0.9 1.2 0.1
v 0.2 1.2 -0.1
v 0.9 1.2 -0.1
v 0.2 1.2 -0.3
v 0.9 1.2 -0.3
v -0.9 1.2 -0.5
v 0.9 1.2 -0.5

# faces
f 6/2/1 2/2/1 1/2/1
f 7/2/1 2/2/1 6/2/1
f 8/2/1 4/2/1 3/2/1
f 9/2/1 4/2/1 8/2/1
f 11/6/1 7/6/1 6/6/1
f 11/6/1 10/6/1 9/6/1
f 11/6/1 9/6/1 8/6/1
f 11/6/1 8/6/1 7/6/1
f 11/6/1 6/6/1 5/6/1
f 12/6/1 10/6/1 11/6/1
f 13/1/1 12/1/1 11/1/1
f 14/1/1 12/1/1 13/1/1
f 17/1/1 16/1/1 15/1/1
f 18/1/1 16/1/1 17/1/1
f 19/6/1 18/6/1 17/6/1
f 20/6/1 18/6/1 19/6/1
f 25/6/1 22/6/1 21/6/1
f 26/1/1 23/1/1 22/1/1
f 26/6/1 22/6/1 25/6/1
f 27/6/1 24/6/1 23/6/1
f 27/1/1 23/1/1 26/1/1
f 28/6/1 24/6/1 27/6/1
f 33/2/1 30/2/1 29/2/1
f 34/2/1 30/2/1 33/2/1
f 35/2/1 32/2/1 31/2/1
f 36/2/1 32/2/1 35/2/1
f 37/2/2 38/2/2 41/2/2
f 41/2/2 38/2/2 42/2/2
f 39/2/2 40/2/2 43/2/2
f 43/2/2 40/2/2 44/2/2
f 45/2/2 46/2/2 49/2/2
f 49/2/2 46/2/2 50/2/2
f 47/2/2 48/2/2 51/2/2
f 51/2/2 48/2/2 52/2/2
f 53/1/2 54/1/2 55/1/2
f 55/1/2 54/1/2 56/1/2
f 56/1/2 54/1/2 57/1/2
f 57/1/2 54/1/2 58/1/2
f 53/1/2 55/1/2 59/1/2
f 55/5/2 56/5/2 60/5/2
f 59/1/2 55/1/2 60/1/2
f 56/1/2 57/1/2 61/1/2
f 60/5/2 56/5/2 61/5/2
f 57/5/2 58/5/2 62/5/2
f 61/1/2 57/1/2 62/1/2
f 58/1/2 54/1/2 63/1/2
f 62/5/2 58/5/2 63/5/2
f 63/1/2 54/1/2 64/1/2
f 67/2/3 66/2/3 65/2/3
f 68/2/3 66/2/3 67/2/3
f 69/2/3 67/2/3 65/2/3
f 69/4/3 68/4/3 67/4/3
f 70/2/3 66/2/3 68/2/3
f 70/4/3 68/4/3 69/4/3
f 71/2/3 69/2/3 65/2/3
f 71/2/3 70/2/3 69/2/3
f 72/2/3 66/2/3 70/2/3
f 72/2/3 70/2/3 71/2/3
f 79/6/3 78/6/3 77/6/3
f 80/6/3 74/6/3 73/6/3
f 81/6/3 79/6/3 77/6/3
f 81/6/3 80/6/3 79/6/3
f 81/1/3 77/1/3 76/1/3
f 82/6/3 74/6/3 80/6/3
f 82/6/3 80/6/3 81/6/3
f 82/1/3 75/1/3 74/1/3
f 83/1/3 82/1/3 81/1/3
f 84/1/3 75/1/3 82/1/3
f 84/1/3 82/1/3 83/1/3
f 85/1/3 83/1/3 81/1/3
f 86/1/3 75/1/3 84/1/3
f 87/1/3 81/1/3 76/1/3
f 87/1/3 86/1/3 85/1/3
f 87/1/3 85/1/3 81/1/3
f 88/1/3 75/1/3 86/1/3
f 88/1/3 86/1/3 87/1/3
f 91/2/3 90/2/3 89/2/3
f 92/2/3 90/2/3 91/2/3
f 95/2/3 94/2/3 93/2/3
f 96/2/3 94/2/3 95/2/3
f 97/2/4 98/2/4 99/2/4
f 99/2/4 98/2/4 100/2/4
f 101/2/4 102/2/4 103/2/4
f 103/2/4 102/2/4 104/2/4
f 109/6/4 110/6/4 111/6/4
f 105/6/4 106/6/4 112/6/4
f 109/6/4 111/6/4 113/6/4
f 111/6/4 112/6/4 113/6/4
f 108/1/4 109/1/4 113/1/4
f 112/6/4 106/6/4 114/6/4
f 113/6/4 112/6/4 114/6/4
f 106/1/4 107/1/4 114/1/4
f 113/1/4 114/1/4 115/1/4
f 114/1/4 107/1/4 116/1/4
f 115/1/4 114/1/4 116/1/4
f 113/1/4 115/1/4 117/1/4
f 116/1/4 107/1/4 118/1/4
f 108/1/4 113/1/4 119/1/4
f 117/1/4 118/1/4 119/1/4
f 113/1/4 117/1/4 119/1/4
f 118/1/4 107/1/4 120/1/4
f 119/1/4 118/1/4 120/1/4
f 121/2/4 122/2/4 123/2/4
f 123/2/4 122/2/4 124/2/4
f 121/2/4 123/2/4 125/2/4
f 123/4/4 124/4/4 125/4/4
f 124/2/4 122/2/4 126/2/4
f 125/4/4 124/4/4 126/4/4
f 121/2/4 125/2/4 127/2/4
f 125/2/4 126/2/4 127/2/4
f 126/2/4 122/2/4 128/2/4
f 127/2/4 126/2/4 128/2/4
f 131/1/5 130/1/5 129/1/5
f 132/1/5 130/1/5 131/1/5
f 135/2/5 134/2/5 133/2/5
f 136/2/5 134/2/5 135/2/5
f 139/2/5 138/2/5 137/2/5
f 140/2/5 138/2/5 139/2/5
f 143/2/5 142/2/5 141/2/5
f 144/2/5 142/2/5 143/2/5
f 147/2/5 146/2/5 145/2/5
f 148/2/5 146/2/5 147/2/5
f 151/6/5 150/6/5 149/6/5
f 152/6/5 150/6/5 151/6/5
f 153/6/5 150/6/5 152/6/5
f 155/1/5 153/1/5 152/1/5
f 156/6/5 155/6/5 154/6/5
f 157/1/5 153/1/5 155/1/5
f 157/6/5 155/6/5 156/6/5
f 159/1/5 153/1/5 157/1/5
f 160/1/5 153/1/5 159/1/5
f 161/6/5 159/6/5 158/6/5
f 161/6/5 160/6/5 159/6/5
f 162/6/5 160/6/5 161/6/5
f 163/6/6 164/6/6 165/6/6
f 165/6/6 164/6/6 166/6/6
f 163/6/6 165/6/6 167/6/6
f 165/1/6 166/1/6 167/1/6
f 167/1/6 166/1/6 168/1/6
f 163/6/6 167/6/6 169/6/6
f 167/6/6 168/6/6 169/6/6
f 169/6/6 168/6/6 170/6/6
f 171/2/6 172/2/6 173/2/6
f 173/2/6 172/2/6 174/2/6
f 175/2/6 176/2/6 177/2/6
f 177/2/6 176/2/6 178/2/6
f 179/1/6 180/1/6 181/1/6
f 181/1/6 180/1/6 182/1/6
f 179/1/6 181/1/6 183/1/6
f 181/5/6 182/5/6 183/5/6
f 183/5/6 182/5/6 184/5/6
f 179/1/6 183/1/6 185/1/6
f 183/1/6 184/1/6 185/1/6
f 185/1/6 184/1/6 186/1/6
f 179/1/6 185/1/6 187/1/6
f 185/5/6 186/5/6 187/5/6
f 187/5/6 186/5/6 188/5/6
f 179/1/6 187/1/6 189/1/6
f 187/1/6 188/1/6 189/1/6
f 189/1/6 188/1/6 190/1/6
