# MagicaVoxel @ Ephtracy

# group
o 

# material
mtllib Nivel 2-1.mtl
usemtl palette

# normals
vn -1 0 0
vn 1 0 0
vn 0 0 1
vn 0 0 -1
vn 0 -1 0
vn 0 1 0

# texcoords
vt 0.970703 0.5
vt 0.974609 0.5

# verts
v -12.1 3 12.1
v -12.1 3 4.5
v -12.1 3 2.1
v -12.1 3 -12.5
v -12.1 4 12.1
v -12.1 4 4.5
v -12.1 4 2.1
v -12.1 4 -12.5
v -11.8 0 11.8
v -11.8 0 4.8
v -11.8 0 1.7
v -11.8 0 -12.2
v -11.8 3 11.8
v -11.8 3 4.8
v -11.8 3 1.7
v -11.8 3 -12.2
v -2.1 3 4.5
v -2.1 3 2.1
v -2.1 4 4.5
v -2.1 4 2.1
v -1.8 0 4.8
v -1.8 0 1.7
v -1.8 3 4.8
v -1.8 3 1.7
v 12.2 0 11.8
v 12.2 0 -12.2
v 12.2 3 11.8
v 12.2 3 -12.2
v 12.5 3 12.1
v 12.5 3 -12.5
v 12.5 4 12.1
v 12.5 4 -12.5
v -12.1 3 12.1
v -12.1 4 12.1
v 12.5 3 12.1
v 12.5 4 12.1
v -11.8 0 11.8
v -11.8 3 11.8
v 12.2 0 11.8
v 12.2 3 11.8
v -12.1 3 2.1
v -12.1 4 2.1
v -2.1 3 2.1
v -2.1 4 2.1
v -11.8 0 1.7
v -11.8 3 1.7
v -1.8 0 1.7
v -1.8 3 1.7
v -11.8 0 4.8
v -11.8 3 4.8
v -1.8 0 4.8
v -1.8 3 4.8
v -12.1 3 4.5
v -12.1 4 4.5
v -2.1 3 4.5
v -2.1 4 4.5
v -11.8 0 -12.2
v -11.8 3 -12.2
v 12.2 0 -12.2
v 12.2 3 -12.2
v -12.1 3 -12.5
v -12.1 4 -12.5
v 12.5 3 -12.5
v 12.5 4 -12.5
v -11.8 0 11.8
v 12.2 0 11.8
v -11.8 0 4.8
v -1.8 0 4.8
v -11.8 0 1.7
v -1.8 0 1.7
v -11.8 0 -12.2
v 12.2 0 -12.2
v -12.1 3 12.1
v 12.5 3 12.1
v -11.8 3 11.8
v 12.2 3 11.8
v -11.8 3 4.8
v -1.8 3 4.8
v -12.1 3 4.5
v -2.1 3 4.5
v -12.1 3 2.1
v -2.1 3 2.1
v -11.8 3 1.7
v -1.8 3 1.7
v -11.8 3 -12.2
v 12.2 3 -12.2
v -12.1 3 -12.5
v 12.5 3 -12.5
v -12.1 4 12.1
v 12.5 4 12.1
v -12.1 4 4.5
v -2.1 4 4.5
v -12.1 4 2.1
v -2.1 4 2.1
v -12.1 4 -12.5
v 12.5 4 -12.5

# faces
f 5/2/1 2/2/1 1/2/1
f 6/2/1 2/2/1 5/2/1
f 7/2/1 4/2/1 3/2/1
f 8/2/1 4/2/1 7/2/1
f 13/1/1 10/1/1 9/1/1
f 14/1/1 10/1/1 13/1/1
f 15/1/1 12/1/1 11/1/1
f 16/1/1 12/1/1 15/1/1
f 19/2/1 18/2/1 17/2/1
f 20/2/1 18/2/1 19/2/1
f 23/1/1 22/1/1 21/1/1
f 24/1/1 22/1/1 23/1/1
f 25/1/2 26/1/2 27/1/2
f 27/1/2 26/1/2 28/1/2
f 29/2/2 30/2/2 31/2/2
f 31/2/2 30/2/2 32/2/2
f 35/2/3 34/2/3 33/2/3
f 36/2/3 34/2/3 35/2/3
f 39/1/3 38/1/3 37/1/3
f 40/1/3 38/1/3 39/1/3
f 43/2/3 42/2/3 41/2/3
f 44/2/3 42/2/3 43/2/3
f 47/1/3 46/1/3 45/1/3
f 48/1/3 46/1/3 47/1/3
f 49/1/4 50/1/4 51/1/4
f 51/1/4 50/1/4 52/1/4
f 53/2/4 54/2/4 55/2/4
f 55/2/4 54/2/4 56/2/4
f 57/1/4 58/1/4 59/1/4
f 59/1/4 58/1/4 60/1/4
f 61/2/4 62/2/4 63/2/4
f 63/2/4 62/2/4 64/2/4
f 67/1/5 66/1/5 65/1/5
f 68/1/5 66/1/5 67/1/5
f 70/1/5 66/1/5 68/1/5
f 71/1/5 70/1/5 69/1/5
f 72/1/5 66/1/5 70/1/5
f 72/1/5 70/1/5 71/1/5
f 75/2/5 74/2/5 73/2/5
f 76/2/5 74/2/5 75/2/5
f 77/2/5 75/2/5 73/2/5
f 79/2/5 77/2/5 73/2/5
f 79/2/5 78/2/5 77/2/5
f 80/2/5 78/2/5 79/2/5
f 82/2/5 78/2/5 80/2/5
f 83/2/5 82/2/5 81/2/5
f 84/2/5 78/2/5 82/2/5
f 84/2/5 82/2/5 83/2/5
f 85/2/5 83/2/5 81/2/5
f 86/2/5 74/2/5 76/2/5
f 87/2/5 85/2/5 81/2/5
f 87/2/5 86/2/5 85/2/5
f 88/2/5 74/2/5 86/2/5
f 88/2/5 86/2/5 87/2/5
f 89/2/6 90/2/6 91/2/6
f 91/2/6 90/2/6 92/2/6
f 92/2/6 90/2/6 94/2/6
f 93/2/6 94/2/6 95/2/6
f 94/2/6 90/2/6 96/2/6
f 95/2/6 94/2/6 96/2/6
