Library\Bee\artifacts\mvdfrm\Unity.2D.Animation.Editor.ref.dll_7684A0691EFAE0C5.mvfrm
Library\Bee\artifacts\mvdfrm\Unity.2D.Animation.Runtime.ref.dll_4F6FC3113C736696.mvfrm
Library\Bee\artifacts\mvdfrm\Unity.2D.Common.Editor.ref.dll_4C20894B5CB48E48.mvfrm
Library\Bee\artifacts\mvdfrm\Unity.2D.Common.Runtime.ref.dll_F7575DE93DDA2363.mvfrm
Library\Bee\artifacts\mvdfrm\Unity.2D.IK.Editor.ref.dll_3536AAE3BA6951E1.mvfrm
Library\Bee\artifacts\mvdfrm\Unity.2D.IK.Runtime.ref.dll_8F5077191B7C25BA.mvfrm
Library\Bee\artifacts\mvdfrm\Unity.2D.Path.Editor.ref.dll_FDE000065FED94DE.mvfrm
Library\Bee\artifacts\mvdfrm\Unity.2D.PixelPerfect.Editor.ref.dll_F4FF2C57B2C1727C.mvfrm
Library\Bee\artifacts\mvdfrm\Unity.2D.PixelPerfect.ref.dll_938343FF3C89A485.mvfrm
Library\Bee\artifacts\mvdfrm\Unity.2D.Psdimporter.Editor.ref.dll_6E5E97B80336F196.mvfrm
Library\Bee\artifacts\mvdfrm\Unity.2D.Sprite.Editor.ref.dll_6C8185F9E5AE014E.mvfrm
Library\Bee\artifacts\mvdfrm\Unity.2D.SpriteShape.Editor.ref.dll_D1E2945540037DAD.mvfrm
Library\Bee\artifacts\mvdfrm\Unity.2D.SpriteShape.Runtime.ref.dll_61D32A7E920E672E.mvfrm
Library\Bee\artifacts\mvdfrm\Unity.2D.Tilemap.Editor.ref.dll_C349DCD839D8880B.mvfrm
Library\Bee\artifacts\mvdfrm\Unity.2D.Tilemap.Extras.Editor.ref.dll_4442349F8547BCD0.mvfrm
Library\Bee\artifacts\mvdfrm\Unity.2D.Tilemap.Extras.ref.dll_B6FC041F98ADC4F1.mvfrm
Library\Bee\artifacts\mvdfrm\Unity.Burst.Editor.ref.dll_222C82CECB47A66F.mvfrm
Library\Bee\artifacts\mvdfrm\Unity.Burst.ref.dll_3835BB91EC2C0D62.mvfrm
Library\Bee\artifacts\mvdfrm\Unity.EditorCoroutines.Editor.ref.dll_1315E0A407C70415.mvfrm
Library\Bee\artifacts\mvdfrm\Unity.InternalAPIEditorBridge.001.ref.dll_25F89DC3AAE256B8.mvfrm
Library\Bee\artifacts\mvdfrm\Unity.InternalAPIEngineBridge.001.ref.dll_1873566E0FF13DFD.mvfrm
Library\Bee\artifacts\mvdfrm\Unity.Mathematics.Editor.ref.dll_553CFFCCE7430329.mvfrm
Library\Bee\artifacts\mvdfrm\Unity.Mathematics.ref.dll_66DE4C1C9A03AD08.mvfrm
Library\Bee\artifacts\mvdfrm\Unity.Performance.Profile-Analyzer.Editor.ref.dll_8B44F821019897E5.mvfrm
Library\Bee\artifacts\mvdfrm\Unity.PlasticSCM.Editor.ref.dll_A558B9E65539D7D0.mvfrm
Library\Bee\artifacts\mvdfrm\Unity.Rider.Editor.ref.dll_DA88E6A3E9EB6155.mvfrm
Library\Bee\artifacts\mvdfrm\Unity.TestTools.CodeCoverage.Editor.OpenCover.Model.ref.dll_22F664961FC0158D.mvfrm
Library\Bee\artifacts\mvdfrm\Unity.TestTools.CodeCoverage.Editor.OpenCover.Mono.Reflection.ref.dll_39D3266F6029657A.mvfrm
Library\Bee\artifacts\mvdfrm\Unity.TestTools.CodeCoverage.Editor.ref.dll_C6D619E6129B87D3.mvfrm
Library\Bee\artifacts\mvdfrm\Unity.TextMeshPro.Editor.ref.dll_D0BA3615D322EF6C.mvfrm
Library\Bee\artifacts\mvdfrm\Unity.TextMeshPro.ref.dll_02929A3ECA791895.mvfrm
Library\Bee\artifacts\mvdfrm\Unity.Timeline.Editor.ref.dll_17F688653313AA4C.mvfrm
Library\Bee\artifacts\mvdfrm\Unity.Timeline.ref.dll_16F8EA6B67022FB5.mvfrm
Library\Bee\artifacts\mvdfrm\Unity.VSCode.Editor.ref.dll_AE868214B5ED3D13.mvfrm
Library\Bee\artifacts\mvdfrm\Unity.VisualScripting.Core.Editor.ref.dll_514B12BC0D1D8DB7.mvfrm
Library\Bee\artifacts\mvdfrm\Unity.VisualScripting.Core.ref.dll_BF8650D11F8E519A.mvfrm
Library\Bee\artifacts\mvdfrm\Unity.VisualScripting.Flow.Editor.ref.dll_CE7BFB6B1BFC18F8.mvfrm
Library\Bee\artifacts\mvdfrm\Unity.VisualScripting.Flow.ref.dll_06973127A197C649.mvfrm
Library\Bee\artifacts\mvdfrm\Unity.VisualScripting.SettingsProvider.Editor.ref.dll_EE1755C0672F8EE2.mvfrm
Library\Bee\artifacts\mvdfrm\Unity.VisualScripting.Shared.Editor.ref.dll_6CA31C4FA5286AB1.mvfrm
Library\Bee\artifacts\mvdfrm\Unity.VisualScripting.State.Editor.ref.dll_DC1879B0E64A8F15.mvfrm
Library\Bee\artifacts\mvdfrm\Unity.VisualScripting.State.ref.dll_900B338E31D9525C.mvfrm
Library\Bee\artifacts\mvdfrm\Unity.VisualStudio.Editor.ref.dll_0FE027DDD6F41767.mvfrm
Library\Bee\artifacts\mvdfrm\UnityEditor.UI.ref.dll_0174E068A5FA251B.mvfrm
Library\Bee\artifacts\mvdfrm\UnityEngine.UI.ref.dll_BDDAB6C3AC1C4D86.mvfrm
Library\Bee\artifacts\mvdfrm\UnityEditor.CoreModule.dll_339FD7C48949C61F.mvfrm
Library\Bee\artifacts\mvdfrm\UnityEditor.DeviceSimulatorModule.dll_BD2E67B8F0969AD2.mvfrm
Library\Bee\artifacts\mvdfrm\UnityEditor.DiagnosticsModule.dll_3D971549F5F0C8A0.mvfrm
Library\Bee\artifacts\mvdfrm\UnityEditor.dll_4FB72CB1F1656946.mvfrm
Library\Bee\artifacts\mvdfrm\UnityEditor.GraphViewModule.dll_50155A029E911877.mvfrm
Library\Bee\artifacts\mvdfrm\UnityEditor.PackageManagerUIModule.dll_7113EFA09D4DF2BB.mvfrm
Library\Bee\artifacts\mvdfrm\UnityEditor.QuickSearchModule.dll_C8A696574EC7C4F9.mvfrm
Library\Bee\artifacts\mvdfrm\UnityEditor.SceneTemplateModule.dll_28ABB51212814C9A.mvfrm
Library\Bee\artifacts\mvdfrm\UnityEditor.TextCoreFontEngineModule.dll_D7B0C6F3F80A08BD.mvfrm
Library\Bee\artifacts\mvdfrm\UnityEditor.TextCoreTextEngineModule.dll_1F98FD65878DC1DB.mvfrm
Library\Bee\artifacts\mvdfrm\UnityEditor.UIBuilderModule.dll_A49E071F114991AB.mvfrm
Library\Bee\artifacts\mvdfrm\UnityEditor.UIElementsModule.dll_4A76F13FAAB726FB.mvfrm
Library\Bee\artifacts\mvdfrm\UnityEditor.UIElementsSamplesModule.dll_E46FC5D4AE202322.mvfrm
Library\Bee\artifacts\mvdfrm\UnityEditor.UIServiceModule.dll_DD901881FA80E1C5.mvfrm
Library\Bee\artifacts\mvdfrm\UnityEditor.UnityConnectModule.dll_2460B83E496A8455.mvfrm
Library\Bee\artifacts\mvdfrm\UnityEngine.AccessibilityModule.dll_5B5120A912F77437.mvfrm
Library\Bee\artifacts\mvdfrm\UnityEngine.AIModule.dll_39FDCA131C8F8693.mvfrm
Library\Bee\artifacts\mvdfrm\UnityEngine.AndroidJNIModule.dll_C8BFDA12F3D695D1.mvfrm
Library\Bee\artifacts\mvdfrm\UnityEngine.AnimationModule.dll_1E9AD62B78EDED1D.mvfrm
Library\Bee\artifacts\mvdfrm\UnityEngine.ARModule.dll_F3708F1679ACE55C.mvfrm
Library\Bee\artifacts\mvdfrm\UnityEngine.AssetBundleModule.dll_0C8FC948B12E79EB.mvfrm
Library\Bee\artifacts\mvdfrm\UnityEngine.AudioModule.dll_7DFB55FE336F3ECF.mvfrm
Library\Bee\artifacts\mvdfrm\UnityEngine.ClothModule.dll_E4E3B2F90D8C1DB3.mvfrm
Library\Bee\artifacts\mvdfrm\UnityEngine.CoreModule.dll_56C0AB17314F314A.mvfrm
Library\Bee\artifacts\mvdfrm\UnityEngine.CrashReportingModule.dll_11AE1674E8FC7722.mvfrm
Library\Bee\artifacts\mvdfrm\UnityEngine.DirectorModule.dll_A1CDCA55317A81E7.mvfrm
Library\Bee\artifacts\mvdfrm\UnityEngine.dll_825B738A4FD8F62B.mvfrm
Library\Bee\artifacts\mvdfrm\UnityEngine.DSPGraphModule.dll_A71F2BBEA3DB5308.mvfrm
Library\Bee\artifacts\mvdfrm\UnityEngine.GameCenterModule.dll_F30D242DBA1786C2.mvfrm
Library\Bee\artifacts\mvdfrm\UnityEngine.GIModule.dll_D23A1320B83E6EAD.mvfrm
Library\Bee\artifacts\mvdfrm\UnityEngine.GridModule.dll_3431C70549A3C741.mvfrm
Library\Bee\artifacts\mvdfrm\UnityEngine.HotReloadModule.dll_9FE394315421089F.mvfrm
Library\Bee\artifacts\mvdfrm\UnityEngine.ImageConversionModule.dll_2ECD27DAE276604A.mvfrm
Library\Bee\artifacts\mvdfrm\UnityEngine.IMGUIModule.dll_B65AF564F9A0D2B0.mvfrm
Library\Bee\artifacts\mvdfrm\UnityEngine.InputLegacyModule.dll_9DD4E46749202FDC.mvfrm
Library\Bee\artifacts\mvdfrm\UnityEngine.InputModule.dll_E4711DAEA9A76373.mvfrm
Library\Bee\artifacts\mvdfrm\UnityEngine.JSONSerializeModule.dll_BB68A9E51232D4C1.mvfrm
Library\Bee\artifacts\mvdfrm\UnityEngine.LocalizationModule.dll_E249F7A6926E4A14.mvfrm
Library\Bee\artifacts\mvdfrm\UnityEngine.ParticleSystemModule.dll_64C05FC1570E02B0.mvfrm
Library\Bee\artifacts\mvdfrm\UnityEngine.PerformanceReportingModule.dll_7A11979C20369009.mvfrm
Library\Bee\artifacts\mvdfrm\UnityEngine.Physics2DModule.dll_6B40C61C19EAE4B2.mvfrm
Library\Bee\artifacts\mvdfrm\UnityEngine.PhysicsModule.dll_6EDCBB063EE46980.mvfrm
Library\Bee\artifacts\mvdfrm\UnityEngine.ProfilerModule.dll_D414038BCAD408F4.mvfrm
Library\Bee\artifacts\mvdfrm\UnityEngine.RuntimeInitializeOnLoadManagerInitializerModule.dll_504B9C5BDD8CB97B.mvfrm
Library\Bee\artifacts\mvdfrm\UnityEngine.ScreenCaptureModule.dll_D550576A269F0123.mvfrm
Library\Bee\artifacts\mvdfrm\UnityEngine.SharedInternalsModule.dll_B2DE66B059A45B9A.mvfrm
Library\Bee\artifacts\mvdfrm\UnityEngine.SpriteMaskModule.dll_DC3996BDDB871C3C.mvfrm
Library\Bee\artifacts\mvdfrm\UnityEngine.SpriteShapeModule.dll_25F0F6A366D0B1F5.mvfrm
Library\Bee\artifacts\mvdfrm\UnityEngine.StreamingModule.dll_D32FC37BC875A45B.mvfrm
Library\Bee\artifacts\mvdfrm\UnityEngine.SubstanceModule.dll_AFDAD7C513C8A269.mvfrm
Library\Bee\artifacts\mvdfrm\UnityEngine.SubsystemsModule.dll_46E6FD1FA9CF044F.mvfrm
Library\Bee\artifacts\mvdfrm\UnityEngine.TerrainModule.dll_8923367514A2B26E.mvfrm
Library\Bee\artifacts\mvdfrm\UnityEngine.TerrainPhysicsModule.dll_653B08947050FD3D.mvfrm
Library\Bee\artifacts\mvdfrm\UnityEngine.TextCoreFontEngineModule.dll_561042470B07C788.mvfrm
Library\Bee\artifacts\mvdfrm\UnityEngine.TextCoreTextEngineModule.dll_9DF878B89A8B80A6.mvfrm
Library\Bee\artifacts\mvdfrm\UnityEngine.TextRenderingModule.dll_FE8FC974DDD68118.mvfrm
Library\Bee\artifacts\mvdfrm\UnityEngine.TilemapModule.dll_281F9DF62C5F9377.mvfrm
Library\Bee\artifacts\mvdfrm\UnityEngine.TLSModule.dll_B0AE57FC04685A54.mvfrm
Library\Bee\artifacts\mvdfrm\UnityEngine.UIElementsModule.dll_4B255E87ACFB4046.mvfrm
Library\Bee\artifacts\mvdfrm\UnityEngine.UIElementsNativeModule.dll_BB8DA4360EC662DD.mvfrm
Library\Bee\artifacts\mvdfrm\UnityEngine.UIModule.dll_3571684078D68C3F.mvfrm
Library\Bee\artifacts\mvdfrm\UnityEngine.UmbraModule.dll_F8D00216C095EA42.mvfrm
Library\Bee\artifacts\mvdfrm\UnityEngine.UNETModule.dll_E966F3007E5E26C3.mvfrm
Library\Bee\artifacts\mvdfrm\UnityEngine.UnityAnalyticsCommonModule.dll_155054E03A1F2E67.mvfrm
Library\Bee\artifacts\mvdfrm\UnityEngine.UnityAnalyticsModule.dll_845FD08B033554AC.mvfrm
Library\Bee\artifacts\mvdfrm\UnityEngine.UnityConnectModule.dll_11C03C4D43F28500.mvfrm
Library\Bee\artifacts\mvdfrm\UnityEngine.UnityCurlModule.dll_51B7775CE901DF0A.mvfrm
Library\Bee\artifacts\mvdfrm\UnityEngine.UnityTestProtocolModule.dll_A0327BC7081B7878.mvfrm
Library\Bee\artifacts\mvdfrm\UnityEngine.UnityWebRequestAssetBundleModule.dll_1B077C70F305187D.mvfrm
Library\Bee\artifacts\mvdfrm\UnityEngine.UnityWebRequestAudioModule.dll_F20DEB7AA6A15AA1.mvfrm
Library\Bee\artifacts\mvdfrm\UnityEngine.UnityWebRequestModule.dll_406C2F84ED6AFAC9.mvfrm
Library\Bee\artifacts\mvdfrm\UnityEngine.UnityWebRequestTextureModule.dll_E80E5ED43578FE96.mvfrm
Library\Bee\artifacts\mvdfrm\UnityEngine.UnityWebRequestWWWModule.dll_68BABE148A4B3D12.mvfrm
Library\Bee\artifacts\mvdfrm\UnityEngine.VehiclesModule.dll_1990C3D4ABA45182.mvfrm
Library\Bee\artifacts\mvdfrm\UnityEngine.VFXModule.dll_318CF06ADAD5C3C1.mvfrm
Library\Bee\artifacts\mvdfrm\UnityEngine.VideoModule.dll_A304DA68F6015A74.mvfrm
Library\Bee\artifacts\mvdfrm\UnityEngine.VRModule.dll_88438EC61A9111B7.mvfrm
Library\Bee\artifacts\mvdfrm\UnityEngine.WindModule.dll_CD0F863FC285AFB3.mvfrm
Library\Bee\artifacts\mvdfrm\UnityEngine.XRModule.dll_BB0251CAA3CB5F15.mvfrm
Library\Bee\artifacts\mvdfrm\Unity.Android.Gradle.dll_B9BDF61652561F87.mvfrm
Library\Bee\artifacts\mvdfrm\Unity.Android.Types.dll_374AA1C4A103DDA5.mvfrm
Library\Bee\artifacts\mvdfrm\Unity.Burst.Cecil.dll_C415D2B20470FCE1.mvfrm
Library\Bee\artifacts\mvdfrm\Unity.Burst.Cecil.Mdb.dll_D0984F27A55DF05E.mvfrm
Library\Bee\artifacts\mvdfrm\Unity.Burst.Cecil.Pdb.dll_E7EAC7972412F1E1.mvfrm
Library\Bee\artifacts\mvdfrm\Unity.Burst.Cecil.Rocks.dll_029EEAF70535E821.mvfrm
Library\Bee\artifacts\mvdfrm\Unity.Burst.Unsafe.dll_4D3998974CB6A862.mvfrm
Library\Bee\artifacts\mvdfrm\Unity.VisualScripting.Antlr3.Runtime.dll_51E5F05776131CA1.mvfrm